{
  "development": {
    "username": "postgres",
    "password": null,
    "database": "challenge_05_dev",
    "host": "127.0.0.1",
    "dialect": "postgres"
  },
  "test": {
    "username": "postgres",
    "password": null,
    "database": "challenge_05_test",
    "host": "127.0.0.1",
    "dialect": "postgres"
  },
  "production": {
    "username": "postgres",
    "password": null,
    "database": "challenge_05",
    "host": "127.0.0.1",
    "dialect": "postgres"
  }
}
